Device,identifier,Year,SoC,RAM (MB),"Mem Speed  
(MHz)",Mem Type,CPU,CPU Arch,Data Width,# CPU Cores,CPU Clock (MHz),Cache,Motion Coprocessor  ,gb_cpu_single,gb_cpu_multi,GPU,# GPU Cores,GPU Clock (MHz),Screen Res,PPI,"Screen Size  
(inches)",Latest OS ver  
iPhone,"iPhone1,1",2007,Samsung S5L8900,128,137,LPDDR,ARM1176JZ(F)-S v1.0,ARMv6,32-bit,1,412,16K/16K,,,,PowerVR MBX Lite,1,60,480 x 320,163,3.5,iOS 3.1.3
iPod touch,"iPod1,1",2007,Samsung S5L8900,128,137,LPDDR,ARM1176JZ(F)-S v1.0,ARMv6,32-bit,1,412,16K/16K,,,,PowerVR MBX Lite,1,60,480 x 320,163,3.5,iOS 3.1.3
iPhone 3G,"iPhone1,2",2008,Samsung S5L8720,128,137,LPDDR,ARM1176JZ(F)-S v1.0,ARMv6,32-bit,1,412,16K/16K,,,,PowerVR MBX Lite,1,60,480 x 320,163,3.5,iOS 4.2.1
iPod touch (2G),"iPod2,1",2008,Samsung S5L8720,128,137,LPDDR,ARM1176JZ(F)-S v1.0,ARMv6,32-bit,1,532,16K/16K,,,,PowerVR MBX Lite,1,60,480 x 320,163,3.5,iOS 4.2.1
iPhone 3GS,"iPhone2,1",2009,Samsung S5PC100,256,200,LPDDR,ARM Cortex-A8,ARMv7,32-bit,1,600,32K/32K • 256K,,150,149,PowerVR SGX535,1,150,480 x 320,163,3.5,iOS 6.1.6
iPod touch (3G),"iPod3,1",2009,Samsung S5PC100,256,,LPDDR,ARM Cortex-A8,ARMv7,32-bit,1,600,32K/32K • 256K,,,,PowerVR SGX535,1,,480 x 320,163,3.5,iOS 5.1.1
iPad,"iPad1,1",2010,Apple A4,256,200,LPDDR,ARM Cortex-A8,ARMv7,32-bit,1,1000,32K/32K • 512K,,,,PowerVR SGX535,1,200,1024 x 768,132,9.7,iOS 5.1.1
iPhone 4,"iPhone3,1",2010,Apple A4,512,200,LPDDR,ARM Cortex-A8,ARMv7,32-bit,1,800,32K/32K • 512K,,207,206,PowerVR SGX535,1,200,960 x 640,326,3.5,iOS 7.1.2
iPhone 4,"iPhone3,2",2010,Apple A4,512,200,LPDDR,ARM Cortex-A8,ARMv7,32-bit,1,800,32K/32K • 512K,,207,206,PowerVR SGX535,1,200,960 x 640,326,3.5,iOS 7.1.2
iPhone 4,"iPhone3,3",2010,Apple A4,512,200,LPDDR,ARM Cortex-A8,ARMv7,32-bit,1,800,32K/32K • 512K,,207,206,PowerVR SGX535,1,200,960 x 640,326,3.5,iOS 7.1.2
iPod touch (4G),"iPod4,1",2010,Apple A4,256,200,LPDDR,ARM Cortex-A8,ARMv7,32-bit,1,800,32K/32K • 512K,,209,209,PowerVR SGX535,1,200,960 x 640,326,3.5,iOS 6.1.6
Apple TV (2G),"AppleTV2,1",2010,Apple A4,256,200,LPDDR,ARM Cortex-A8,ARMv7,32-bit,1,800,32K/32K • 512K,,,,PowerVR SGX535,1,200,1280 x 720,..,..,tvOS 10.2.2
iPad 2,"iPhone2,1",2011,Apple A5,512,400,LPDDR2,ARM Cortex-A9,ARMv7,32-bit,2,1000,32K/32K • 1MB,,259,489,PowerVR SGX543MP2,2,250,1024 x 768,132,9.7,iOS 9.3.3
iPad 2,"iPhone2,2",2011,Apple A5,512,400,LPDDR2,ARM Cortex-A9,ARMv7,32-bit,2,1000,32K/32K • 1MB,,259,489,PowerVR SGX543MP2,2,250,1024 x 768,132,9.7,iOS 9.3.3
iPad 2,"iPhone2,3",2011,Apple A5,512,400,LPDDR2,ARM Cortex-A9,ARMv7,32-bit,2,1000,32K/32K • 1MB,,259,489,PowerVR SGX543MP2,2,250,1024 x 768,132,9.7,iOS 9.3.3
iPhone 4S,"iPhone4,1",2011,Apple A5,512,400,LPDDR2,ARM Cortex-A9,ARMv7,32-bit,2,800,32K/32K • 1MB,,214,404,PowerVR SGX543MP2,2,250,960 x 640,326,3.5,iOS 9.3.3
iPad (3G),"iPad3,1",2012,Apple A5X,1024,400,LPDDR2,ARM Cortex-A9,ARMv7,32-bit,2,1000,32K/32K • 1MB,,259,489,PowerVR SGX543MP4,4,250,2048 x 1536,264,9.7,iOS 9.3.3
iPad (3G),"iPad3,2",2012,Apple A5X,1024,400,LPDDR2,ARM Cortex-A9,ARMv7,32-bit,2,1000,32K/32K • 1MB,,259,489,PowerVR SGX543MP4,4,250,2048 x 1536,264,9.7,iOS 9.3.3
iPad (3G),"iPad3,3",2012,Apple A5X,1024,400,LPDDR2,ARM Cortex-A9,ARMv7,32-bit,2,1000,32K/32K • 1MB,,259,489,PowerVR SGX543MP4,4,250,2048 x 1536,264,9.7,iOS 9.3.3
Apple TV (3G),"AppleTV3,1",2012,Apple A5,512,400,LPDDR2,ARM Cortex-A9,ARMv7,32-bit,1,,32K/32K • 1MB,,,,PowerVR SGX543MP2,2,250,1920 x 1080,..,..,tvOS 10.2.2
iPhone 5,"iPhone5,1",2012,Apple A6,1024,533,LPDDR2,Swift,ARMv7s,32-bit,2,1300,32K/32K • 1MB,,707,1271,PowerVR SGX543MP3,3,266,1136 x 640,326,4,iOS 12.1
iPhone 5,"iPhone5,2",2012,Apple A6,1024,533,LPDDR2,Swift,ARMv7s,32-bit,2,1300,32K/32K • 1MB,,707,1271,PowerVR SGX543MP3,3,266,1136 x 640,326,4,iOS 12.1
iPod touch (5G),"iPod5,1",2012,Apple A5,512,400,LPDDR2,ARM Cortex-A9,ARMv7,32-bit,2,800,32K/32K • 1MB,,215,409,PowerVR SGX543MP2,2,250,1136 x 640,326,4,iOS 9.3.3
iPad (4G),"iPad3,4",2012,Apple A6X,1024,,LPDDR2,Swift,ARMv7s,32-bit,2,1400,32K/32K • 1MB,,768,1399,PowerVR SGX554MP4,4,likely ~300MHz,2048 x 1536,264,9.7,iOS 12.1
iPad (4G),"iPad3,5",2012,Apple A6X,1024,,LPDDR2,Swift,ARMv7s,32-bit,2,1400,32K/32K • 1MB,,768,1399,PowerVR SGX554MP4,4,likely ~300MHz,2048 x 1536,264,9.7,iOS 12.1
iPad (4G),"iPad3,6",2012,Apple A6X,1024,,LPDDR2,Swift,ARMv7s,32-bit,2,1400,32K/32K • 1MB,,768,1399,PowerVR SGX554MP4,4,likely ~300MHz,2048 x 1536,264,9.7,iOS 12.1
iPad mini,"iPad2,5",2012,Apple A5,512,400,LPDDR2,ARM Cortex-A9,ARMv7,32-bit,2,1000,32K/32K • 1MB,,259,488,PowerVR SGX543MP2,2,250,1024 x 768,163,7.9,iOS 9.3.3
iPad mini,"iPad2,6",2012,Apple A5,512,400,LPDDR2,ARM Cortex-A9,ARMv7,32-bit,2,1000,32K/32K • 1MB,,259,488,PowerVR SGX543MP2,2,250,1024 x 768,163,7.9,iOS 9.3.3
iPad mini,"iPad2,7",2012,Apple A5,512,400,LPDDR2,ARM Cortex-A9,ARMv7,32-bit,2,1000,32K/32K • 1MB,,259,488,PowerVR SGX543MP2,2,250,1024 x 768,163,7.9,iOS 9.3.3
Apple TV (3G Rev A),"AppleTV3,1",2013,Apple A5,512,400,LPDDR2,ARM Cortex-A9,ARMv7,32-bit,1,,32K/32K • 1MB,,,,PowerVR SGX543MP2,2,250,1920 x 1080,..,..,tvOS 10.2.2
iPhone 5c,"iPhone5,3",2013,Apple A6,1024,533,LPDDR2,Swift,ARMv7s,32-bit,2,1300,32K/32K • 1MB,,689,1235,PowerVR SGX543MP3,3,266,1136 x 640,326,4,iOS 12.1
iPhone 5c,"iPhone5,4",2013,Apple A6,1024,533,LPDDR2,Swift,ARMv7s,32-bit,2,1300,32K/32K • 1MB,,689,1235,PowerVR SGX543MP3,3,266,1136 x 640,326,4,iOS 12.1
iPhone 5s,"iPhone6,1",2013,Apple A7,1024,666,LPDDR3,Cyclone,ARMv8,64-bit,2,1300,64K/64K • 1MB • 4MB,Apple M7,1394,2509,PowerVR G6430,4,300 ?,1136 x 640,326,4,iOS 12.1
iPhone 5s,"iPhone6,2",2013,Apple A7,1024,666,LPDDR3,Cyclone,ARMv8,64-bit,2,1300,64K/64K • 1MB • 4MB,Apple M7,1394,2509,PowerVR G6430,4,300 ?,1136 x 640,326,4,iOS 12.1
iPhone 5s,"iPhone6,3",2013,Apple A7,1024,666,LPDDR3,Cyclone,ARMv8,64-bit,2,1300,64K/64K • 1MB • 4MB,Apple M7,1394,2509,PowerVR G6430,4,300 ?,1136 x 640,326,4,iOS 12.1
iPad Air,"iPad4,1",2013,Apple A7,1024,666,LPDDR3,Cyclone,ARMv8,64-bit,2,1400,64K/64K • 1MB • 4MB,Apple M7,1466,2650,PowerVR G6430,4,300 ?,2048 x 1536,264,9.7,iOS 12.1
iPad Air,"iPad4,2",2013,Apple A7,1024,666,LPDDR3,Cyclone,ARMv8,64-bit,2,1400,64K/64K • 1MB • 4MB,Apple M7,1466,2650,PowerVR G6430,4,300 ?,2048 x 1536,264,9.7,iOS 12.1
iPad Air,"iPad4,3",2013,Apple A7,1024,666,LPDDR3,Cyclone,ARMv8,64-bit,2,1400,64K/64K • 1MB • 4MB,Apple M7,1466,2650,PowerVR G6430,4,300 ?,2048 x 1536,264,9.7,iOS 12.1
iPad mini 2,"iPad4,4",2013,Apple A7,1024,666,LPDDR3,Cyclone,ARMv8,64-bit,2,1300,64K/64K • 1MB • 4MB,Apple M7,1375,2474,PowerVR G6430,4,300 ?,2048 x 1536,326,7.9,iOS 12.1
iPad mini 2,"iPad4,5",2013,Apple A7,1024,666,LPDDR3,Cyclone,ARMv8,64-bit,2,1300,64K/64K • 1MB • 4MB,Apple M7,1375,2474,PowerVR G6430,4,300 ?,2048 x 1536,326,7.9,iOS 12.1
iPad mini 2,"iPad4,6",2013,Apple A7,1024,666,LPDDR3,Cyclone,ARMv8,64-bit,2,1300,64K/64K • 1MB • 4MB,Apple M7,1375,2474,PowerVR G6430,4,300 ?,2048 x 1536,326,7.9,iOS 12.1
iPhone 6,"iPhone7,2",2014,Apple A8,1024,800,LPDDR3,Typhoon,ARMv8,64-bit,2,1400,64K/64K • 1MB • 4MB,Apple M8,1607,2876,PowerVR GX6450,4,450,1334 x 750,326,4.7,iOS 12.1
iPhone 6 Plus,"iPhone7,1",2014,Apple A8,1024,800,LPDDR3,Typhoon,ARMv8,64-bit,2,1400,64K/64K • 1MB • 4MB,Apple M8,1604,2882,PowerVR GX6450,4,450,1920 x 1080,401,5.5,iOS 12.1
iPad Air 2,"iPad5,3",2014,Apple A8X,2048,800,LPDDR3,Typhoon,ARMv8,64-bit,3,1500,64K/64K • 2MB • 4MB,Apple M8,1809,4529,"PowerVR ""GXA6850""",8,450,2048 x 1536,264,9.7,iOS 12.1
iPad Air 2,"iPad5,4",2014,Apple A8X,2048,800,LPDDR3,Typhoon,ARMv8,64-bit,3,1500,64K/64K • 2MB • 4MB,Apple M8,1809,4529,"PowerVR ""GXA6850""",8,450,2048 x 1536,264,9.7,iOS 12.1
iPad mini 3,"iPad4,7",2014,Apple A7,1024,666,LPDDR3,Cyclone,ARMv8,64-bit,2,1300,64K/64K • 1MB • 4MB,Apple M7,1355,2426,PowerVR G6430,4,300 ?,2048 x 1536,326,7.9,iOS 12.1
iPad mini 3,"iPad4,8",2014,Apple A7,1024,666,LPDDR3,Cyclone,ARMv8,64-bit,2,1300,64K/64K • 1MB • 4MB,Apple M7,1355,2426,PowerVR G6430,4,300 ?,2048 x 1536,326,7.9,iOS 12.1
iPad mini 3,"iPad4,9",2014,Apple A7,1024,666,LPDDR3,Cyclone,ARMv8,64-bit,2,1300,64K/64K • 1MB • 4MB,Apple M7,1355,2426,PowerVR G6430,4,300 ?,2048 x 1536,326,7.9,iOS 12.1
Apple Watch 38mm,"Watch1,1",2015,Apple S1,512,,,APL0778 (Cortex-A7),ARMv7-A,32-bit,1,520,32K • 256K,,,,PowerVR SGX543,1,,272 x 340,326,1.32,watchOS 3.2.3
Apple Watch 42mm,"Watch1,2",2015,Apple S1,512,,,APL0778 (Cortex-A7),ARMv7-A,32-bit,1,520,32K • 256K,,,,PowerVR SGX543,1,,312 x 390,326,1.5,watchOS 3.2.3
iPod touch (6G),"iPod7,1",2015,Apple A8,1024,800,LPDDR3,Typhoon,ARMv8,64-bit,2,1100,64K/64K • 1MB • 4MB,Apple M8,1372,2417,PowerVR GX6450,4,450,1334 x 750,326,4.7,iOS 12.1
Apple TV (4G),"AppleTV5,3",2015,Apple A8,2048,800,LPDDR3,Typhoon,ARMv8,64-bit,2,1400,64K/64K • 1MB • 4MB,,,,PowerVR GX6450,4,450,1920 x 1080,..,..,tvOS 10.2.2
iPad Pro,"iPad6,7",2015,Apple A9X,4096,1600,LPDDR4,Twister,ARMv8-A,64-bit,2,2260,64K/64K • 3MB,Apple M9,3233,5498,PowerVR Series7,12,,2732 x 2048,264,12.9,iOS 12.1
iPad Pro,"iPad6,8",2015,Apple A9X,4096,1600,LPDDR4,Twister,ARMv8-A,64-bit,2,2260,64K/64K • 3MB,Apple M9,3233,5498,PowerVR Series7,12,,2732 x 2048,264,12.9,iOS 12.1
iPad mini 4,"iPad5,1",2015,Apple A8,1024,800,LPDDR3,Typhoon,ARMv8,64-bit,2,1400,64K/64K • 1MB • 4MB,Apple M8,,,PowerVR GX6450,4,450,2048 x 1536,264,7.9,iOS 12.1
iPad mini 4,"iPad5,2",2015,Apple A8,1024,800,LPDDR3,Typhoon,ARMv8,64-bit,2,1400,64K/64K • 1MB • 4MB,Apple M8,,,PowerVR GX6450,4,450,2048 x 1536,264,7.9,iOS 12.1
iPhone 6S,"iPhone8,1",2015,Apple A9,2048,1600,LPDDR4,Twister,ARMv8,64-bit,2,1850,64K/64K • 3MB • 8MB,Apple M9,2498,4341,PowerVR GT7600,6,,1334 x 750,326,4.7,iOS 12.1
iPhone 6S Plus,"iPhone8,2",2015,Apple A9,2048,1600,LPDDR4,Twister,ARMv8,64-bit,2,1850,64K/64K • 3MB • 8MB,Apple M9,2488,4344,PowerVR GT7600,6,,1920 x 1080,401,5.5,iOS 12.1
iPhone SE,"iPhone8,4",2016,Apple A9,2048,1600,LPDDR4,Twister,ARMv8,64-bit,2,1850,64K/64K • 3MB • 8MB,Apple M9,2538,4421,PowerVR GT7600,6,,1136 x 640,326,4,iOS 12.1
9.7-inch iPad Pro,"iPad6,3",2016,Apple A9X,2048,1600,LPDDR4,Twister,ARMv8-A,64-bit,2,2260,64K/64K • 3MB,Apple M9,3022,5107,PowerVR Series7,12,,2048 x 1536,264,9.7,iOS 12.1
9.7-inch iPad Pro,"iPad6,4",2016,Apple A9X,2048,1600,LPDDR4,Twister,ARMv8-A,64-bit,2,2260,64K/64K • 3MB,Apple M9,3022,5107,PowerVR Series7,12,,2048 x 1536,264,9.7,iOS 12.1
Apple Watch 38mm (s2),"Watch2,1",2016,Apple S2,,,,,,,2,780,,,,,,,,272 x 340,326,1.32,watchOS 5.0.1
Apple Watch 42mm (s2),"Watch2,2",2016,Apple S2,,,,,,,2,780,,,,,,,,312 x 390,326,1.5,watchOS 5.0.1
iPhone 7,"iPhone9,1",2016,Apple A10 Fusion,2048,,LPDDR4,Hurricane (x2) + Zephyr (x2),ARMv8,64-bit,4*,2340,64K/64K • 3MB,Apple M10,3506,6073,PowerVR GT7600 Plus,6,,1334 x 750,326,4.7,iOS 12.1
iPhone 7,"iPhone9,2",2016,Apple A10 Fusion,2048,,LPDDR4,Hurricane (x2) + Zephyr (x2),ARMv8,64-bit,4*,2340,64K/64K • 3MB,Apple M10,3506,6073,PowerVR GT7600 Plus,6,,1334 x 750,326,4.7,iOS 12.1
iPhone 7,"iPhone9,3",2016,Apple A10 Fusion,2048,,LPDDR4,Hurricane (x2) + Zephyr (x2),ARMv8,64-bit,4*,2340,64K/64K • 3MB,Apple M10,3506,6073,PowerVR GT7600 Plus,6,,1334 x 750,326,4.7,iOS 12.1
iPhone 7 Plus,"iPhone9,4",2016,Apple A10 Fusion,3072,,LPDDR4,Hurricane (x2) + Zephyr (x2),ARMv8,64-bit,4*,2340,64K/64K • 3MB,Apple M10,3517,6081,PowerVR GT7600 Plus,6,,1920 x 1080,401,5.5,iOS 12.1
iPhone 7 Plus,"iPhone9,5",2016,Apple A10 Fusion,3072,,LPDDR4,Hurricane (x2) + Zephyr (x2),ARMv8,64-bit,4*,2340,64K/64K • 3MB,Apple M10,3517,6081,PowerVR GT7600 Plus,6,,1920 x 1080,401,5.5,iOS 12.1
iPhone 7 Plus,"iPhone9,6",2016,Apple A10 Fusion,3072,,LPDDR4,Hurricane (x2) + Zephyr (x2),ARMv8,64-bit,4*,2340,64K/64K • 3MB,Apple M10,3517,6081,PowerVR GT7600 Plus,6,,1920 x 1080,401,5.5,iOS 12.1
iPad,"iPad6,11",2017,Apple A9,2048,800,LPDDR4,Twister,ARMv8,64-bit,2,1850,64K/64K • 2MB • 4MB,Apple M9,,,PowerVR GT7600,8,,2048 x 1536,264,9.7,iOS 12.1
iPad,"iPad6,12",2017,Apple A9,2048,800,LPDDR4,Twister,ARMv8,64-bit,2,1850,64K/64K • 2MB • 4MB,Apple M9,,,PowerVR GT7600,8,,2048 x 1536,264,9.7,iOS 12.1
10.5-inch iPad Pro,"iPad7,3",2017,Apple A10X Fusion,4096,,LPDDR4,Hurricane (x3) + Zephyr (x3),ARMv8-A,64-bit,6*,2360,64K/64K • 8MB,Apple M10,3832,9091,,12,,2224 x 1668,264,10.5,iOS 12.1
10.5-inch iPad Pro,"iPad7,4",2017,Apple A10X Fusion,4096,,LPDDR4,Hurricane (x3) + Zephyr (x3),ARMv8-A,64-bit,6*,2360,64K/64K • 8MB,Apple M10,3832,9091,,12,,2224 x 1668,264,10.5,iOS 12.1
12.9-inch iPad Pro,"iPad7,1",2017,Apple A10X Fusion,4096,,LPDDR4,Hurricane (x3) + Zephyr (x3),ARMv8-A,64-bit,6*,2360,64K/64K • 8MB,Apple M10,,,,12,,2732 x 2048,264,12.9,iOS 12.1
12.9-inch iPad Pro,"iPad7,2",2017,Apple A10X Fusion,4096,,LPDDR4,Hurricane (x3) + Zephyr (x3),ARMv8-A,64-bit,6*,2360,64K/64K • 8MB,Apple M10,,,,12,,2732 x 2048,264,12.9,iOS 12.1
Apple TV 4K,"AppleTV6,2",2017,Apple A10X Fusion,3072,800,LPDDR4,Hurricane (x3) + Zephyr (x3),ARMv8-A,64-bit,6*,2360,64K/64K • 8MB,Apple M10,,,,4,,3840 x 2160,..,..,tvOS 12.1
Apple Watch 38mm (s3),"Watch3,1",2017,Apple S3,,,,,,,2,,,,,,,,,272 x 340,326,1.32,watchOS 5.0.1
Apple Watch 42mm (s3),"Watch3,2",2017,Apple S3,,,,,,,2,,,,,,,,,312 x 390,326,1.5,watchOS 5.0.1
iPhone 8,"iPhone10,1",2017,Apple A11 Bionic,2048,,LPDDR4,Monsoon (x2) + Mistral (x4),ARMv8-A,64-bit,6**,,32K/32K • 8MB,Apple M11,,,[ Apple designed ],3,,1334 x 750,326,4.7,iOS 12.1
iPhone 8,"iPhone10,4",2017,Apple A11 Bionic,2048,,LPDDR4,Monsoon (x2) + Mistral (x4),ARMv8-A,64-bit,6**,,32K/32K • 8MB,Apple M11,,,[ Apple designed ],3,,1334 x 750,326,4.7,iOS 12.1
iPhone 8 Plus,"iPhone10,2",2017,Apple A11 Bionic,3072,,LPDDR4,Monsoon (x2) + Mistral (x4),ARMv8-A,64-bit,6**,,32K/32K • 8MB,Apple M11,,,[ Apple designed ],3,,1920 x 1080,401,5.5,iOS 12.1
iPhone 8 Plus,"iPhone10,5",2017,Apple A11 Bionic,3072,,LPDDR4,Monsoon (x2) + Mistral (x4),ARMv8-A,64-bit,6**,,32K/32K • 8MB,Apple M11,,,[ Apple designed ],3,,1920 x 1080,401,5.5,iOS 12.1
iPhone X,"iPhone10,3",2017,Apple A11 Bionic,3072,,LPDDR4,Monsoon (x2) + Mistral (x4),ARMv8-A,64-bit,6**,,32K/32K • 8MB,Apple M11,4274,10248,[ Apple designed ],3,,2436 x 1125,458,5.8,iOS 12.1
iPhone X,"iPhone10,6",2017,Apple A11 Bionic,3072,,LPDDR4,Monsoon (x2) + Mistral (x4),ARMv8-A,64-bit,6**,,32K/32K • 8MB,Apple M11,4274,10248,[ Apple designed ],3,,2436 x 1125,458,5.8,iOS 12.1
iPhone XS,"iPhone11,3",2018,Apple A12 Bionic,4096,,LPDDR4X,Vortex (x2) + Tempest (x4),ARMv8-A,64-bit,6**,to 2490,128K/128K • 8MB,,4795,11229,[ Apple designed ],4,,2436 x 1125,458,5.8,iOS 12.1
iPhone XS Max,"iPhone11,5",2018,Apple A12 Bionic,4096,,LPDDR4X,Vortex (x2) + Tempest (x4),ARMv8-A,64-bit,6**,to 2490,128K/128K • 8MB,,4795,11169,[ Apple designed ],4,,2688 x 1242,458,6.5,iOS 12.1
iPhone XR,"iPhone11,1",2018,Apple A12 Bionic,3072,,LPDDR4X,Vortex (x2) + Tempest (x4),ARMv8-A,64-bit,6**,to 2490,128K/128K • 8MB,,4796,11162,[ Apple designed ],4,,1792 x 828,326,6.1,iOS 12.1
11-inch iPad Pro,"iPad8,1",2018,Apple A12X Bionic,4096,,LPDDR4X,Vortex (x4) + Tempest (x4),ARMv8-A,64-bit,8**,to 2490,128K/128K • 8MB,Apple M12,5030,17995,[ Apple designed ],4,,2388 x 1668,,6.1,iOS 12.1
11-inch iPad Pro,"iPad8,2",2018,Apple A12X Bionic,4096,,LPDDR4X,Vortex (x4) + Tempest (x4),ARMv8-A,64-bit,8**,to 2490,128K/128K • 8MB,Apple M12,5030,17995,[ Apple designed ],4,,2388 x 1668,,6.1,iOS 12.1
12.9-inch iPad Pro,"iPad8,5",2018,Apple A12X Bionic,4096,,LPDDR4X,Vortex (x4) + Tempest (x4),ARMv8-A,64-bit,8**,to 2490,128K/128K • 8MB,Apple M12,5030,17995,[ Apple designed ],4,,2732 x 2048,264,6.1,iOS 12.1
12.9-inch iPad Pro,"iPad8,6",2018,Apple A12X Bionic,4096,,LPDDR4X,Vortex (x4) + Tempest (x4),ARMv8-A,64-bit,8**,to 2490,128K/128K • 8MB,Apple M12,5030,17995,[ Apple designed ],4,,2732 x 2048,264,6.1,iOS 12.1